{
  "images" : [
    {
      "filename" : "Google.pdf",
      "idiom" : "universal",
      "scale" : "1x"
    },
    {
      "filename" : "Google-2.pdf",
      "idiom" : "universal",
      "scale" : "2x"
    },
    {
      "filename" : "Google-1.pdf",
      "idiom" : "universal",
      "scale" : "3x"
    }
  ],
  "info" : {
    "author" : "xcode",
    "version" : 1
  },
  "properties" : {
    "preserves-vector-representation" : true,
    "template-rendering-intent" : "original"
  }
}
